…
```r
## Data filtered and grouped by date for a summary of steps per day
dailysteps <- data %>%
    filter(!is.na(steps)) %>%
    group_by(date) %>%
    summarize(steps = sum(steps)) %>%
    print(dailysteps)
```

```
## `summarise()` ungrouping output (override with `.groups` argument)
```

```
## # A tibble: 53 x 2
##    date       steps
##    <date>     <int>
##  1 2012-10-02   126
##  2 2012-10-03 11352
##  3 2012-10-04 12116
##  4 2012-10-05 13294
##  5 2012-10-06 15420
##  6 2012-10-07 11015
##  7 2012-10-09 12811
##  8 2012-10-10  9900
##  9 2012-10-11 10304
## 10 2012-10-12 17382
## # ... with 43 more rows
```
…
```
## `summarise()` ungrouping output (override with `.groups` argument)
```

```r
    print(intvlsteps)
```

```
## # A tibble: 288 x 2
##    interval  steps
##       <int>  <dbl>
##  1        0 1.72  
##  2        5 0.340 
##  3       10 0.132 
##  4       15 0.151 
##  5       20 0.0755
##  6       25 2.09  
##  7       30 0.528 
##  8       35 0.868 
##  9       40 0     
## 10       45 1.47  
## # ... with 278 more rows
```
…
```r
## Data evaluated to calculate the number of steps taken in each 5-minute interval per day
stepsfill <- datafill %>%
    filter(!is.na(steps)) %>%
    group_by(date) %>%
    summarize(steps = sum(steps)) %>%
    print(stepsfill) 
```

```
## `summarise()` ungrouping output (override with `.groups` argument)
```

```
## # A tibble: 61 x 2
##    date        steps
##    <date>      <dbl>
##  1 2012-10-01 10766.
##  2 2012-10-02   126 
##  3 2012-10-03 11352 
##  4 2012-10-04 12116 
##  5 2012-10-05 13294 
##  6 2012-10-06 15420 
##  7 2012-10-07 11015 
##  8 2012-10-08 10766.
##  9 2012-10-09 12811 
## 10 2012-10-10  9900 
## # ... with 51 more rows
```
…
```
## `summarise()` regrouping output by 'interval' (override with `.groups` argument)
```

```r
    print(intervallevels)
```

```
## # A tibble: 576 x 3
## # Groups:   interval [288]
##    interval weektype   steps
##       <int> <chr>      <dbl>
##  1        0 weekday  2.25   
##  2        0 weekend  0.215  
##  3        5 weekday  0.445  
##  4        5 weekend  0.0425 
##  5       10 weekday  0.173  
##  6       10 weekend  0.0165 
##  7       15 weekday  0.198  
##  8       15 weekend  0.0189 
##  9       20 weekday  0.0990 
## 10       20 weekend  0.00943
## # ... with 566 more rows
```
…
